Name,Mean,MeanLB,MeanUB,Stddev,StddevLB,StddevUB
1,1.7123164808328006e-6,1.71142024759367e-6,1.7133887978548806e-6,3.085115093569758e-9,2.500410792035229e-9,4.1444501866611346e-9
2,2.628606101557741e-6,2.6283097555485587e-6,2.628906852715426e-6,9.752183344474578e-10,8.114243326611505e-10,1.1583317089435363e-9
4,4.3326540392623726e-6,4.332287269487249e-6,4.333072433998255e-6,1.3418273021166593e-9,1.1001874275683124e-9,1.7027512196841152e-9
8,7.635043372118318e-6,7.634122235437762e-6,7.636228960897235e-6,3.5697650172034735e-9,2.5420115145425023e-9,5.09072387360183e-9
16,1.4680061761492744e-5,1.4678740011267837e-5,1.4682269731875166e-5,5.8333082380520864e-9,3.828376631873494e-9,8.92681305118899e-9
32,3.0025886009188978e-5,3.0022184689773246e-5,3.0036036717940122e-5,2.011579631405053e-8,8.737696560979107e-9,4.148567082864026e-8
64,6.730145587548887e-5,6.729533915778135e-5,6.731020877165599e-5,2.4288477677130654e-8,1.8818310209426017e-8,3.533865037319547e-8
128,1.6823041240314194e-4,1.6820255541860502e-4,1.683190991206242e-4,1.5058086375546445e-7,5.546800309882898e-8,3.2910881026669593e-7
256,6.154695120772365e-4,6.130438079780119e-4,6.183686988628975e-4,8.949378384732706e-6,7.009435669367934e-6,1.2374228764214356e-5
512,2.6675799996878336e-3,2.665747033868895e-3,2.6695815021609334e-3,6.362891892521497e-6,5.237928800176975e-6,7.86124305517644e-6
1024,7.800958355060891e-3,7.795729098956938e-3,7.806892254634928e-3,1.6078528807790973e-5,1.2606311302719335e-5,2.2681707707759947e-5
2048,3.5540327093907524e-2,3.548374549097825e-2,3.559535226376633e-2,1.0937289305852197e-4,5.571505687247944e-5,1.7739094032836084e-4
4096,0.1728613801721862,0.1727668796064515,0.17306838802336202,1.8936313950350698e-4,6.597391469542913e-5,2.873894286770238e-4
8192,0.886975829897115,0.8860228856595249,0.8874556177481585,8.253338637728292e-4,0.0,8.31016934861798e-4
16384,7.909874387424861,7.908237315319035,7.9128743005460125,2.601616751865666e-3,0.0,2.6771646690239874e-3
