Name,Mean,MeanLB,MeanUB,Stddev,StddevLB,StddevUB
pr/1,3.4878384021220503e-6,3.4748590203910518e-6,3.5033975002159473e-6,4.833449575766083e-8,4.1505033493592635e-8,5.7970345482891594e-8
pr/2,5.644912652019763e-6,5.626114278203385e-6,5.67256315850638e-6,7.403564070492485e-8,5.7220783876055605e-8,9.270776842933201e-8
pr/4,1.0110934554166455e-5,1.0076982055671197e-5,1.0148565290974876e-5,1.209755756759692e-7,1.0184702453358846e-7,1.4280639711487572e-7
pr/8,1.9488809247781386e-5,1.9408213949990755e-5,1.959061442670391e-5,2.990725791459336e-7,2.4466242760706966e-7,3.7257111525863916e-7
pr/16,4.306717116569739e-5,4.226259719463397e-5,4.415358442205518e-5,3.201388130453682e-6,2.400050473993702e-6,3.9258397642946e-6
pr/32,9.814925760032573e-5,9.789130337909859e-5,9.847427819800012e-5,9.78015703790712e-7,7.742243982902146e-7,1.2283695072905533e-6
pr/64,3.646554206801292e-4,3.6349661229978167e-4,3.660485237924941e-4,4.249558294628731e-6,3.4704601918213244e-6,5.942217924602015e-6
pr/128,1.45717224267196e-3,1.4519980795399423e-3,1.4632399830554676e-3,1.8585729330100154e-5,1.4827483412749396e-5,2.3614540677594016e-5
pr/256,5.815288137935435e-3,5.784479498808264e-3,5.841989312077162e-3,8.45714753552401e-5,6.730148703491442e-5,1.1180827142076265e-4
pr/512,2.175514776527492e-2,2.142709845382851e-2,2.2059334378261776e-2,7.415594623110864e-4,4.97349521092437e-4,1.177144226203125e-3
pr/1024,8.756354182413777e-2,8.590004728088801e-2,8.921166009486597e-2,2.7246224474173353e-3,2.039474052970644e-3,3.7476425951455173e-3
pr/2048,0.36488999884138607,0.3493144107804642,0.37301643886577485,1.352705945745339e-2,0.0,1.4075407006902603e-2
