Name,Mean,MeanLB,MeanUB,Stddev,StddevLB,StddevUB
1,5.510575052215967e-8,5.5074909528393297e-8,5.5135317296905035e-8,1.0143528850809326e-10,8.878977004899033e-11,1.1221676116844179e-10
2,9.44321605442537e-8,9.439812133278508e-8,9.446886056719857e-8,1.2384042942126984e-10,1.0926543130049845e-10,1.4279025569521594e-10
4,2.085208403536809e-7,2.084762438980747e-7,2.0855449392412964e-7,1.3309294526052727e-10,1.1326219717265684e-10,1.6657598002456624e-10
8,3.5693345376782477e-7,3.5689484152047385e-7,3.5698756419601515e-7,1.45910066673656e-10,1.1169179303232428e-10,2.1371937818268618e-10
16,6.717117858688716e-7,6.714887820817263e-7,6.719572418754045e-7,7.533410377388381e-10,6.764562900062903e-10,8.323169063931424e-10
32,1.2858725159401216e-6,1.2856942440135977e-6,1.2861283221329171e-6,6.731464630916609e-10,5.298959961777787e-10,9.798756845700026e-10
64,2.521480649931708e-6,2.5211254108764398e-6,2.5218278962135274e-6,1.2036039211207008e-9,1.023327717947024e-9,1.4554809473560358e-9
128,5.12332421234778e-6,5.122690765638031e-6,5.124009170315142e-6,2.2396230803265637e-9,1.8949055027296404e-9,2.76387810708622e-9
256,1.0401499381102894e-5,1.0400479450131783e-5,1.040287082210968e-5,3.89713868337493e-9,3.1149488001301034e-9,5.649717646494022e-9
512,2.169916425967968e-5,2.169698004211361e-5,2.170113563954446e-5,7.311648725747515e-9,6.269174083941468e-9,8.669022618943672e-9
1024,4.631836864772178e-5,4.631332116921807e-5,4.632321670585509e-5,1.620130097762497e-8,1.3311864648063298e-8,2.0036678240875596e-8
2048,1.0944105196516771e-4,1.0938556408583248e-4,1.0949363322855304e-4,1.779260482741986e-7,1.4571071771413677e-7,2.345185688216801e-7
4096,2.9848217825622676e-4,2.9820607364494764e-4,2.987043893957413e-4,7.96347460894408e-7,5.748916816909302e-7,1.0900076269579285e-6
8192,7.402576302116228e-4,7.396671035466647e-4,7.408447867560878e-4,1.96085904852825e-6,1.4529764682713094e-6,3.261012048123526e-6
16384,1.5791419891327963e-3,1.578357195683998e-3,1.5799649950900545e-3,2.7279756734728952e-6,1.9260105559306636e-6,4.222542376081942e-6
32768,3.4839747208089034e-3,3.480248495269378e-3,3.488252968710376e-3,1.2087234463025127e-5,8.923341794753366e-6,1.698100316079128e-5
65536,7.34155504799129e-3,7.335402104302567e-3,7.347185314620134e-3,1.674604895790812e-5,1.3590552990452739e-5,2.104192620862605e-5
131072,1.884541921873602e-2,1.8829931868976014e-2,1.8861613578832277e-2,3.669444032045272e-5,2.8435681510467083e-5,4.9246214485788657e-5
262144,3.7218140848882086e-2,3.714732467286658e-2,3.7287625161827744e-2,1.397739495891047e-4,1.0737439573076464e-4,1.8075747768577842e-4
524288,7.605032508574015e-2,7.563657191139493e-2,7.690319794224804e-2,9.575507493372543e-4,1.605027308017749e-4,1.7029060484094287e-3
1048576,0.15249550462291134,0.1496528229350244,0.15347980739413908,2.258226760200722e-3,2.4763675488534615e-4,3.1186014893615664e-3
2097152,0.295446936888364,0.29070419749787235,0.3001896762788556,5.855102192493448e-3,3.0695469807392184e-3,7.408479903946335e-3
